<?xml version="1.0" encoding="UTF-8" standalone="no"?>
<!-- Created with Inkscape (http://www.inkscape.org/) -->

<svg
   xmlns:dc="http://purl.org/dc/elements/1.1/"
   xmlns:cc="http://creativecommons.org/ns#"
   xmlns:rdf="http://www.w3.org/1999/02/22-rdf-syntax-ns#"
   xmlns:svg="http://www.w3.org/2000/svg"
   xmlns="http://www.w3.org/2000/svg"
   xmlns:sodipodi="http://sodipodi.sourceforge.net/DTD/sodipodi-0.dtd"
   xmlns:inkscape="http://www.inkscape.org/namespaces/inkscape"
   width="103.28754mm"
   height="91.021202mm"
   viewBox="0 0 103.28754 91.021202"
   version="1.1"
   id="svg8"
   inkscape:version="0.92.4 (5da689c313, 2019-01-14)"
   sodipodi:docname="encoder_time_measurement_strategy.svg">
  <defs
     id="defs2">
    <marker
       inkscape:stockid="Arrow2Mend"
       orient="auto"
       refY="0"
       refX="0"
       id="marker4931"
       style="overflow:visible"
       inkscape:isstock="true">
      <path
         id="path4929"
         style="fill:#ff0000;fill-opacity:1;fill-rule:evenodd;stroke:#ff0000;stroke-width:0.625;stroke-linejoin:round;stroke-opacity:1"
         d="M 8.7185878,4.0337352 -2.2072895,0.01601326 8.7185884,-4.0017078 c -1.7454984,2.3720609 -1.7354408,5.6174519 -6e-7,8.035443 z"
         transform="scale(-0.6)"
         inkscape:connector-curvature="0" />
    </marker>
    <marker
       inkscape:isstock="true"
       style="overflow:visible"
       id="marker3275"
       refX="0"
       refY="0"
       orient="auto"
       inkscape:stockid="Arrow2Mend"
       inkscape:collect="always">
      <path
         transform="scale(-0.6)"
         d="M 8.7185878,4.0337352 -2.2072895,0.01601326 8.7185884,-4.0017078 c -1.7454984,2.3720609 -1.7354408,5.6174519 -6e-7,8.035443 z"
         style="fill:#ff0000;fill-opacity:1;fill-rule:evenodd;stroke:#ff0000;stroke-width:0.625;stroke-linejoin:round;stroke-opacity:1"
         id="path3273"
         inkscape:connector-curvature="0" />
    </marker>
    <marker
       inkscape:isstock="true"
       style="overflow:visible"
       id="marker2707"
       refX="0"
       refY="0"
       orient="auto"
       inkscape:stockid="Arrow2Mend">
      <path
         transform="scale(-0.6)"
         d="M 8.7185878,4.0337352 -2.2072895,0.01601326 8.7185884,-4.0017078 c -1.7454984,2.3720609 -1.7354408,5.6174519 -6e-7,8.035443 z"
         style="fill:#868686;fill-opacity:1;fill-rule:evenodd;stroke:#868686;stroke-width:0.625;stroke-linejoin:round;stroke-opacity:1"
         id="path2705"
         inkscape:connector-curvature="0" />
    </marker>
    <marker
       inkscape:stockid="Arrow2Mend"
       orient="auto"
       refY="0"
       refX="0"
       id="marker2079"
       style="overflow:visible"
       inkscape:isstock="true"
       inkscape:collect="always">
      <path
         id="path2077"
         style="fill:#868686;fill-opacity:1;fill-rule:evenodd;stroke:#868686;stroke-width:0.625;stroke-linejoin:round;stroke-opacity:1"
         d="M 8.7185878,4.0337352 -2.2072895,0.01601326 8.7185884,-4.0017078 c -1.7454984,2.3720609 -1.7354408,5.6174519 -6e-7,8.035443 z"
         transform="scale(-0.6)"
         inkscape:connector-curvature="0" />
    </marker>
    <marker
       inkscape:isstock="true"
       style="overflow:visible"
       id="marker1899"
       refX="0"
       refY="0"
       orient="auto"
       inkscape:stockid="Arrow2Mend"
       inkscape:collect="always">
      <path
         transform="scale(-0.6)"
         d="M 8.7185878,4.0337352 -2.2072895,0.01601326 8.7185884,-4.0017078 c -1.7454984,2.3720609 -1.7354408,5.6174519 -6e-7,8.035443 z"
         style="fill:#868686;fill-opacity:1;fill-rule:evenodd;stroke:#868686;stroke-width:0.625;stroke-linejoin:round;stroke-opacity:1"
         id="path1897"
         inkscape:connector-curvature="0" />
    </marker>
    <marker
       inkscape:stockid="Arrow2Mend"
       orient="auto"
       refY="0"
       refX="0"
       id="Arrow2Mend"
       style="overflow:visible"
       inkscape:isstock="true"
       inkscape:collect="always">
      <path
         id="path1448"
         style="fill:#868686;fill-opacity:1;fill-rule:evenodd;stroke:#868686;stroke-width:0.625;stroke-linejoin:round;stroke-opacity:1"
         d="M 8.7185878,4.0337352 -2.2072895,0.01601326 8.7185884,-4.0017078 c -1.7454984,2.3720609 -1.7354408,5.6174519 -6e-7,8.035443 z"
         transform="scale(-0.6)"
         inkscape:connector-curvature="0" />
    </marker>
  </defs>
  <sodipodi:namedview
     id="base"
     pagecolor="#ffffff"
     bordercolor="#666666"
     borderopacity="1.0"
     inkscape:pageopacity="0.0"
     inkscape:pageshadow="2"
     inkscape:zoom="1"
     inkscape:cx="188.56102"
     inkscape:cy="163.52176"
     inkscape:document-units="mm"
     inkscape:current-layer="layer1"
     showgrid="false"
     inkscape:window-width="1248"
     inkscape:window-height="1051"
     inkscape:window-x="56"
     inkscape:window-y="0"
     inkscape:window-maximized="0"
     fit-margin-top="0"
     fit-margin-left="0"
     fit-margin-right="0"
     fit-margin-bottom="0" />
  <metadata
     id="metadata5">
    <rdf:RDF>
      <cc:Work
         rdf:about="">
        <dc:format>image/svg+xml</dc:format>
        <dc:type
           rdf:resource="http://purl.org/dc/dcmitype/StillImage" />
        <dc:title></dc:title>
      </cc:Work>
    </rdf:RDF>
  </metadata>
  <g
     inkscape:label="Camada 1"
     inkscape:groupmode="layer"
     id="layer1"
     transform="translate(-80.81436,-102.40558)">
    <path
       style="fill:none;stroke:#868686;stroke-width:0.39687499;stroke-linecap:butt;stroke-linejoin:miter;stroke-miterlimit:4;stroke-dasharray:none;stroke-opacity:1;marker-end:url(#Arrow2Mend)"
       d="M 93.30342,193.42678 V 103.00559"
       id="path1419"
       inkscape:connector-curvature="0" />
    <path
       style="fill:none;stroke:#868686;stroke-width:0.39687499;stroke-linecap:butt;stroke-linejoin:miter;stroke-miterlimit:4;stroke-dasharray:none;stroke-opacity:1;marker-end:url(#marker1899)"
       d="M 88.118761,136.94564 H 182.97272"
       id="path1883"
       inkscape:connector-curvature="0" />
    <g
       id="g1356">
      <path
         inkscape:connector-curvature="0"
         id="path815"
         d="m 93.360117,136.88943 h 3.70322 v -3.5436 h 0.03193"
         style="fill:none;stroke:#000000;stroke-width:0.26458332;stroke-linecap:butt;stroke-linejoin:miter;stroke-miterlimit:4;stroke-dasharray:none;stroke-opacity:1" />
      <path
         style="fill:none;stroke:#000000;stroke-width:0.26458332;stroke-linecap:butt;stroke-linejoin:miter;stroke-miterlimit:4;stroke-dasharray:none;stroke-opacity:1"
         d="m 97.063337,133.34583 h 3.703223 v -3.5436 h 0.0319"
         id="path1329"
         inkscape:connector-curvature="0" />
      <path
         style="fill:none;stroke:#000000;stroke-width:0.26458332;stroke-linecap:butt;stroke-linejoin:miter;stroke-miterlimit:4;stroke-dasharray:none;stroke-opacity:1"
         d="m 100.76656,129.80223 h 3.70321 v -3.54359 h 0.0319"
         id="path1331"
         inkscape:connector-curvature="0" />
      <path
         inkscape:connector-curvature="0"
         id="path1333"
         d="m 104.46977,126.25864 h 3.70322 v -3.5436 h 0.0319"
         style="fill:none;stroke:#000000;stroke-width:0.26458332;stroke-linecap:butt;stroke-linejoin:miter;stroke-miterlimit:4;stroke-dasharray:none;stroke-opacity:1" />
      <path
         sodipodi:nodetypes="cc"
         style="fill:none;stroke:#000000;stroke-width:0.26458332;stroke-linecap:butt;stroke-linejoin:miter;stroke-miterlimit:4;stroke-dasharray:none;stroke-opacity:1"
         d="m 108.20489,122.71504 h 3.70322"
         id="path1344"
         inkscape:connector-curvature="0" />
      <path
         inkscape:connector-curvature="0"
         id="path1348"
         d="m 111.77582,122.69757 v 14.32415"
         style="fill:none;stroke:#000000;stroke-width:0.26458332;stroke-linecap:butt;stroke-linejoin:miter;stroke-miterlimit:4;stroke-dasharray:none;stroke-opacity:1" />
    </g>
    <g
       id="g1370"
       transform="translate(18.322159)">
      <path
         style="fill:none;stroke:#000000;stroke-width:0.26458332;stroke-linecap:butt;stroke-linejoin:miter;stroke-miterlimit:4;stroke-dasharray:none;stroke-opacity:1"
         d="m 93.360117,136.88943 h 3.70322 v -3.5436 h 0.03193"
         id="path1358"
         inkscape:connector-curvature="0" />
      <path
         inkscape:connector-curvature="0"
         id="path1360"
         d="m 97.063337,133.34583 h 3.703223 v -3.5436 h 0.0319"
         style="fill:none;stroke:#000000;stroke-width:0.26458332;stroke-linecap:butt;stroke-linejoin:miter;stroke-miterlimit:4;stroke-dasharray:none;stroke-opacity:1" />
      <path
         inkscape:connector-curvature="0"
         id="path1362"
         d="m 100.76656,129.80223 h 3.70321 v -3.54359 h 0.0319"
         style="fill:none;stroke:#000000;stroke-width:0.26458332;stroke-linecap:butt;stroke-linejoin:miter;stroke-miterlimit:4;stroke-dasharray:none;stroke-opacity:1" />
      <path
         style="fill:none;stroke:#000000;stroke-width:0.26458332;stroke-linecap:butt;stroke-linejoin:miter;stroke-miterlimit:4;stroke-dasharray:none;stroke-opacity:1"
         d="m 104.46977,126.25864 h 3.70322 v -3.5436 h 0.0319"
         id="path1364"
         inkscape:connector-curvature="0" />
      <path
         inkscape:connector-curvature="0"
         id="path1366"
         d="m 108.20489,122.71504 h 3.70322"
         style="fill:none;stroke:#000000;stroke-width:0.26458332;stroke-linecap:butt;stroke-linejoin:miter;stroke-miterlimit:4;stroke-dasharray:none;stroke-opacity:1"
         sodipodi:nodetypes="cc" />
      <path
         style="fill:none;stroke:#000000;stroke-width:0.26458332;stroke-linecap:butt;stroke-linejoin:miter;stroke-miterlimit:4;stroke-dasharray:none;stroke-opacity:1"
         d="m 111.77582,122.69757 v 14.32415"
         id="path1368"
         inkscape:connector-curvature="0" />
    </g>
    <g
       id="g1384"
       transform="translate(36.681999)">
      <path
         style="fill:none;stroke:#000000;stroke-width:0.26458332;stroke-linecap:butt;stroke-linejoin:miter;stroke-miterlimit:4;stroke-dasharray:none;stroke-opacity:1"
         d="m 93.360117,136.88943 h 3.70322 v -3.5436 h 0.03193"
         id="path1372"
         inkscape:connector-curvature="0" />
      <path
         inkscape:connector-curvature="0"
         id="path1374"
         d="m 97.063337,133.34583 h 3.703223 v -3.5436 h 0.0319"
         style="fill:none;stroke:#000000;stroke-width:0.26458332;stroke-linecap:butt;stroke-linejoin:miter;stroke-miterlimit:4;stroke-dasharray:none;stroke-opacity:1" />
      <path
         inkscape:connector-curvature="0"
         id="path1376"
         d="m 100.76656,129.80223 h 3.70321 v -3.54359 h 0.0319"
         style="fill:none;stroke:#000000;stroke-width:0.26458332;stroke-linecap:butt;stroke-linejoin:miter;stroke-miterlimit:4;stroke-dasharray:none;stroke-opacity:1" />
      <path
         style="fill:none;stroke:#000000;stroke-width:0.26458332;stroke-linecap:butt;stroke-linejoin:miter;stroke-miterlimit:4;stroke-dasharray:none;stroke-opacity:1"
         d="m 104.46977,126.25864 h 3.70322 v -3.5436 h 0.0319"
         id="path1378"
         inkscape:connector-curvature="0" />
      <path
         inkscape:connector-curvature="0"
         id="path1380"
         d="m 108.20489,122.71504 h 3.70322"
         style="fill:none;stroke:#000000;stroke-width:0.26458332;stroke-linecap:butt;stroke-linejoin:miter;stroke-miterlimit:4;stroke-dasharray:none;stroke-opacity:1"
         sodipodi:nodetypes="cc" />
      <path
         style="fill:none;stroke:#000000;stroke-width:0.26458332;stroke-linecap:butt;stroke-linejoin:miter;stroke-miterlimit:4;stroke-dasharray:none;stroke-opacity:1"
         d="m 111.77582,122.69757 v 14.32415"
         id="path1382"
         inkscape:connector-curvature="0" />
    </g>
    <g
       transform="translate(55.004158)"
       id="g1398">
      <path
         inkscape:connector-curvature="0"
         id="path1386"
         d="m 93.360117,136.88943 h 3.70322 v -3.5436 h 0.03193"
         style="fill:none;stroke:#000000;stroke-width:0.26458332;stroke-linecap:butt;stroke-linejoin:miter;stroke-miterlimit:4;stroke-dasharray:none;stroke-opacity:1" />
      <path
         style="fill:none;stroke:#000000;stroke-width:0.26458332;stroke-linecap:butt;stroke-linejoin:miter;stroke-miterlimit:4;stroke-dasharray:none;stroke-opacity:1"
         d="m 97.063337,133.34583 h 3.703223 v -3.5436 h 0.0319"
         id="path1388"
         inkscape:connector-curvature="0" />
      <path
         style="fill:none;stroke:#000000;stroke-width:0.26458332;stroke-linecap:butt;stroke-linejoin:miter;stroke-miterlimit:4;stroke-dasharray:none;stroke-opacity:1"
         d="m 100.76656,129.80223 h 3.70321 v -3.54359 h 0.0319"
         id="path1390"
         inkscape:connector-curvature="0" />
      <path
         inkscape:connector-curvature="0"
         id="path1392"
         d="m 104.46977,126.25864 h 3.70322 v -3.5436 h 0.0319"
         style="fill:none;stroke:#000000;stroke-width:0.26458332;stroke-linecap:butt;stroke-linejoin:miter;stroke-miterlimit:4;stroke-dasharray:none;stroke-opacity:1" />
      <path
         sodipodi:nodetypes="cc"
         style="fill:none;stroke:#000000;stroke-width:0.26458332;stroke-linecap:butt;stroke-linejoin:miter;stroke-miterlimit:4;stroke-dasharray:none;stroke-opacity:1"
         d="m 108.20489,122.71504 h 3.70322"
         id="path1394"
         inkscape:connector-curvature="0" />
      <path
         inkscape:connector-curvature="0"
         id="path1396"
         d="m 111.77582,122.69757 v 14.32415"
         style="fill:none;stroke:#000000;stroke-width:0.26458332;stroke-linecap:butt;stroke-linejoin:miter;stroke-miterlimit:4;stroke-dasharray:none;stroke-opacity:1" />
    </g>
    <path
       inkscape:connector-curvature="0"
       id="path2075"
       d="M 88.647928,156.6571 H 183.50189"
       style="fill:none;stroke:#868686;stroke-width:0.39687499;stroke-linecap:butt;stroke-linejoin:miter;stroke-miterlimit:4;stroke-dasharray:none;stroke-opacity:1;marker-end:url(#marker2079)" />
    <text
       xml:space="preserve"
       style="font-style:normal;font-weight:normal;font-size:2.82222223px;line-height:1.25;font-family:sans-serif;text-align:center;letter-spacing:0px;word-spacing:0px;text-anchor:middle;fill:#000000;fill-opacity:1;stroke:none;stroke-width:0.26458332"
       x="-128.63474"
       y="82.958588"
       id="text2687"
       transform="rotate(-90)"><tspan
         sodipodi:role="line"
         id="tspan2685"
         x="-128.1855"
         y="82.958588"
         style="text-align:center;text-anchor:middle;stroke-width:0.26458332">Timer </tspan><tspan
         sodipodi:role="line"
         x="-128.63474"
         y="86.486366"
         style="text-align:center;text-anchor:middle;stroke-width:0.26458332"
         id="tspan2689">count</tspan></text>
    <text
       xml:space="preserve"
       style="font-style:normal;font-weight:normal;font-size:2.82222223px;line-height:1.25;font-family:sans-serif;text-align:center;letter-spacing:0px;word-spacing:0px;text-anchor:middle;fill:#000000;fill-opacity:1;stroke:none;stroke-width:0.26458332"
       x="-149.15303"
       y="82.958588"
       id="text2693"
       transform="rotate(-90)"><tspan
         sodipodi:role="line"
         id="tspan2691"
         x="-149.15303"
         y="82.958588"
         style="text-align:center;text-anchor:middle;stroke-width:0.26458332">Encoder</tspan><tspan
         sodipodi:role="line"
         x="-149.15303"
         y="86.486366"
         style="text-align:center;text-anchor:middle;stroke-width:0.26458332"
         id="tspan2695">chA</tspan></text>
    <path
       style="fill:none;stroke:#868686;stroke-width:0.39687499;stroke-linecap:butt;stroke-linejoin:miter;stroke-miterlimit:4;stroke-dasharray:none;stroke-opacity:1;marker-end:url(#marker2707)"
       d="M 88.647928,174.91335 H 183.50189"
       id="path2703"
       inkscape:connector-curvature="0" />
    <path
       style="fill:none;stroke:#b3b3b3;stroke-width:0.5291667;stroke-linecap:butt;stroke-linejoin:miter;stroke-miterlimit:4;stroke-dasharray:1.05833333, 0.52916667;stroke-dashoffset:0;stroke-opacity:1"
       d="m 98.423622,114.01793 v 65.35208"
       id="path3078"
       inkscape:connector-curvature="0" />
    <path
       inkscape:connector-curvature="0"
       id="path3080"
       d="m 139.56644,114.01896 v 65.74896"
       style="fill:none;stroke:#b3b3b3;stroke-width:0.5291667;stroke-linecap:butt;stroke-linejoin:miter;stroke-miterlimit:4;stroke-dasharray:1.05833333, 0.52916667;stroke-dashoffset:0;stroke-opacity:1" />
    <path
       id="path3082"
       d="m 93.265624,174.90788 h 5.159375 v -7.67291 l 41.142711,-0.13229 v 7.82174 l 21.82812,-0.0165 h 9.525"
       style="fill:none;stroke:#000000;stroke-width:0.26458332px;stroke-linecap:butt;stroke-linejoin:miter;stroke-opacity:1"
       inkscape:connector-curvature="0"
       sodipodi:nodetypes="ccccccc" />
    <text
       transform="rotate(-90)"
       id="text3099"
       y="82.958588"
       x="-169.79053"
       style="font-style:normal;font-weight:normal;font-size:2.82222223px;line-height:1.25;font-family:sans-serif;text-align:center;letter-spacing:0px;word-spacing:0px;text-anchor:middle;fill:#000000;fill-opacity:1;stroke:none;stroke-width:0.26458332"
       xml:space="preserve"><tspan
         id="tspan3097"
         style="text-align:center;text-anchor:middle;stroke-width:0.26458332"
         y="82.958588"
         x="-169.79053"
         sodipodi:role="line">Pulse</tspan><tspan
         style="text-align:center;text-anchor:middle;stroke-width:0.26458332"
         y="86.486366"
         x="-169.79053"
         sodipodi:role="line"
         id="tspan3103">lenght</tspan></text>
    <path
       style="fill:#000000;fill-opacity:1;stroke:#000000;stroke-width:0.26458332;stroke-linecap:butt;stroke-linejoin:miter;stroke-miterlimit:4;stroke-dasharray:none;stroke-opacity:1"
       d="m 97.660284,151.32808 0.742006,-2.7692 0.758523,2.7692 z"
       id="path3072"
       inkscape:connector-curvature="0"
       sodipodi:nodetypes="cccc" />
    <path
       sodipodi:nodetypes="cccc"
       inkscape:connector-curvature="0"
       id="path3076"
       d="m 138.81979,151.32808 0.74201,-2.7692 0.75852,2.7692 z"
       style="fill:#000000;fill-opacity:1;stroke:#000000;stroke-width:0.26458332;stroke-linecap:butt;stroke-linejoin:miter;stroke-miterlimit:4;stroke-dasharray:none;stroke-opacity:1" />
    <path
       style="fill:none;stroke:#000000;stroke-width:0.26458332px;stroke-linecap:butt;stroke-linejoin:miter;stroke-opacity:1"
       d="m 93.265624,153.86041 h 5.159375 V 146.1875 H 120.65 v 7.80521 h 18.91771 v -7.9375 h 21.82812 v 7.8052 h 9.525"
       id="path2683"
       inkscape:connector-curvature="0" />
    <path
       inkscape:connector-curvature="0"
       id="path3105"
       d="m 111.75369,114.01793 v 65.35208"
       style="fill:none;stroke:#ff0000;stroke-width:0.5291667;stroke-linecap:butt;stroke-linejoin:miter;stroke-miterlimit:4;stroke-dasharray:1.05833333, 0.52916667;stroke-dashoffset:0;stroke-opacity:1" />
    <path
       style="fill:none;stroke:#ff0000;stroke-width:0.5291667;stroke-linecap:butt;stroke-linejoin:miter;stroke-miterlimit:4;stroke-dasharray:1.05833333, 0.52916667;stroke-dashoffset:0;stroke-opacity:1"
       d="m 130.10916,114.01793 v 65.35208"
       id="path3107"
       inkscape:connector-curvature="0" />
    <text
       xml:space="preserve"
       style="font-style:normal;font-weight:normal;font-size:2.82222223px;line-height:1.25;font-family:sans-serif;text-align:center;letter-spacing:0px;word-spacing:0px;text-anchor:middle;fill:#000000;fill-opacity:1;stroke:none;stroke-width:0.26458332"
       x="147.41908"
       y="185.4781"
       id="text3111"><tspan
         sodipodi:role="line"
         id="tspan3109"
         x="147.41908"
         y="185.4781"
         style="font-weight:bold;text-align:center;text-anchor:middle;fill:#ff0000;fill-opacity:1;stroke-width:0.26458332">Timer</tspan><tspan
         sodipodi:role="line"
         x="147.41908"
         y="189.00587"
         style="font-weight:bold;text-align:center;text-anchor:middle;fill:#ff0000;fill-opacity:1;stroke-width:0.26458332"
         id="tspan3113">overflow</tspan></text>
    <path
       style="fill:none;stroke:#ff0000;stroke-width:0.26458332;stroke-linecap:butt;stroke-linejoin:miter;stroke-miterlimit:4;stroke-dasharray:none;stroke-opacity:1;marker-end:url(#marker3275)"
       d="m 130.10916,179.37001 c 2.90726,3.4436 8.42831,5.07613 8.42831,5.07613"
       id="path3265"
       inkscape:connector-curvature="0"
       sodipodi:nodetypes="cc" />
    <path
       style="fill:none;stroke:#ff0000;stroke-width:0.26458332;stroke-linecap:butt;stroke-linejoin:miter;stroke-miterlimit:4;stroke-dasharray:none;stroke-opacity:1;marker-end:url(#marker4931)"
       d="m 111.75369,179.37001 c 5.42291,3.94965 11.73203,7.61128 26.97256,8.3702"
       id="path4921"
       inkscape:connector-curvature="0"
       sodipodi:nodetypes="cc" />
  </g>
</svg>
